{
	"collapseBooleanAttributes": true,
	"collapseInlineTagWhitespace": false,
	"collapseWhitespace": true,
	"conservativeCollapse": false,
	"html5": true,
	"keepClosingSlash": true,
	"minifyCSS": true,
	"minifyJS": true,
	"minifyURLs": true,
	"preserveLineBreaks": false,
	"removeComments": true,
	"removeTagWhitespace": false,
	"useShortDoctype": true
}
